<?xml version="1.0" encoding="UTF-8" ?>
<OAI-PMH xmlns="http://www.openarchives.org/OAI/2.0/" xmlns:xsi="http://www.w3.org/2001/XMLSchema-instance"
         xsi:schemaLocation="http://www.openarchives.org/OAI/2.0/ http://www.openarchives.org/OAI/2.0/OAI-PMH.xsd">
    <responseDate>2017-11-15T12:30:02Z</responseDate>
    <request verb="ListIdentifiers" set="smvk-mm" metadataPrefix="edm">
        http://kulturarvsdata.se/oaicat-europeana/OAIHandler/default
    </request>
    <ListIdentifiers>
        <header>
            <identifier>http://kulturarvsdata.se/SMVK-MM/Islam/3300001</identifier>
            <datestamp>2017-11-12</datestamp>
            <setSpec>smvk-mm</setSpec>
        </header>
        <resumptionToken expirationDate="2017-11-15T13:30:03Z" completeListSize="2932" cursor="50">
            edm:smvk-mm:*:*:50:2932
        </resumptionToken>
    </ListIdentifiers>
</OAI-PMH>